{
  "page": 1,
  "total_results": 7279,
  "total_pages": 364,
  "results": [
    {
      "popularity": 12.003,
      "vote_count": 264,
      "video": false,
      "poster_path": "/4XzbcAKdX4n3aWfzBjjeAlm68S3.jpg",
      "id": 640344,
      "adult": false,
      "backdrop_path": "/wooZWiC4NWH0ahCSUOogEmVejHo.jpg",
      "original_language": "it",
      "original_title": "Me contro Te: Il film - La vendetta del Signor S",
      "genre_ids": [
        35,
        10751
      ],
      "title": "Me contro Te: Il film - La vendetta del Signor S",
      "vote_average": 8.8,
      "overview": "Luì and Sofì fight the terrible Signor S once again, this time he will be revealed to the public!!!",
      "release_date": "2020-01-17"
    },
    {
      "popularity": 16.521,
      "vote_count": 2279,
      "video": false,
      "poster_path": "/2CAL2433ZeIihfX1Hb2139CX0pW.jpg",
      "id": 19404,
      "adult": false,
      "backdrop_path": null,
      "original_language": "hi",
      "original_title": "दिलवाले दुल्हनिया ले जायेंगे",
      "genre_ids": [
        35,
        18,
        10749
      ],
      "title": "Dilwale Dulhania Le Jayenge",
      "vote_average": 8.8,
      "overview": "Raj is a rich, carefree, happy-go-lucky second generation NRI. Simran is the daughter of Chaudhary Baldev Singh, who in spite of being an NRI is very strict about adherence to Indian values. Simran has left for India to be married to her childhood fiancé. Raj leaves for India with a mission at his hands, to claim his lady love under the noses of her whole family. Thus begins a saga.",
      "release_date": "1995-10-20"
    },
    {
      "popularity": 116.202,
      "vote_count": 326,
      "video": false,
      "poster_path": "/c01Y4suApJ1Wic2xLmaq1QYcfoZ.jpg",
      "id": 618344,
      "adult": false,
      "backdrop_path": "/sQkRiQo3nLrQYMXZodDjNUJKHZV.jpg",
      "original_language": "en",
      "original_title": "Justice League Dark: Apokolips War",
      "genre_ids": [
        28,
        12,
        16,
        14,
        878
      ],
      "title": "Justice League Dark: Apokolips War",
      "vote_average": 8.7,
      "overview": "Earth is decimated after intergalactic tyrant Darkseid has devastated the Justice League in a poorly executed war by the DC Super Heroes. Now the remaining bastions of good – the Justice League, Teen Titans, Suicide Squad and assorted others – must regroup, strategize and take the war to Darkseid in order to save the planet and its surviving inhabitants.",
      "release_date": "2020-05-05"
    },
    {
      "popularity": 37.385,
      "vote_count": 16122,
      "video": false,
      "poster_path": "/5KCVkau1HEl7ZzfPsKAPM0sMiKc.jpg",
      "id": 278,
      "adult": false,
      "backdrop_path": "/avedvodAZUcwqevBfm8p4G2NziQ.jpg",
      "original_language": "en",
      "original_title": "The Shawshank Redemption",
      "genre_ids": [
        80,
        18
      ],
      "title": "The Shawshank Redemption",
      "vote_average": 8.7,
      "overview": "Framed in the 1940s for the double murder of his wife and her lover, upstanding banker Andy Dufresne begins a new life at the Shawshank prison, where he puts his accounting skills to work for an amoral warden. During his long stretch in prison, Dufresne comes to be admired by the other inmates -- including an older prisoner named Red -- for his integrity and unquenchable sense of hope.",
      "release_date": "1994-09-23"
    },
    {
      "popularity": 18.026,
      "vote_count": 274,
      "video": false,
      "poster_path": "/8mRgpubxHqnqvENK4Bei30xMDvy.jpg",
      "id": 537061,
      "adult": false,
      "backdrop_path": "/re3ZvlKJg04iLpLRf1xTKHS2wLU.jpg",
      "original_language": "en",
      "original_title": "Steven Universe: The Movie",
      "genre_ids": [
        12,
        16,
        35,
        14,
        10402,
        878,
        10751,
        10770
      ],
      "title": "Steven Universe: The Movie",
      "vote_average": 8.7,
      "overview": "Two years after the events of \"Change Your Mind\", Steven (now 16 years old) and his friends are ready to enjoy the rest of their lives peacefully. However, all of that changes when a new sinister Gem arrives, armed with a giant drill that saps the life force of all living things on Earth. In their biggest challenge ever, the Crystal Gems must work together to save all organic life on Earth within 48 hours.",
      "release_date": "2019-09-02"
    },
    {
      "popularity": 38.74,
      "vote_count": 12216,
      "video": false,
      "poster_path": "/iVZ3JAcAjmguGPnRNfWFOtLHOuY.jpg",
      "id": 238,
      "adult": false,
      "backdrop_path": "/7VrRna8S3x6xbijooeBmxqvHXiu.jpg",
      "original_language": "en",
      "original_title": "The Godfather",
      "genre_ids": [
        80,
        18
      ],
      "title": "The Godfather",
      "vote_average": 8.7,
      "overview": "Spanning the years 1945 to 1955, a chronicle of the fictional Italian-American Corleone crime family. When organized crime family patriarch, Vito Corleone barely survives an attempt on his life, his youngest son, Michael steps in to take care of the would-be killers, launching a campaign of bloody revenge.",
      "release_date": "1972-03-14"
    },
    {
      "popularity": 35.303,
      "vote_count": 9700,
      "video": false,
      "poster_path": "/c8Ass7acuOe4za6DhSattE359gr.jpg",
      "id": 424,
      "adult": false,
      "backdrop_path": "/w2ezhZUk7ZJH9Mdk1Y6CTmaDRg5.jpg",
      "original_language": "en",
      "original_title": "Schindler's List",
      "genre_ids": [
        18,
        36,
        10752
      ],
      "title": "Schindler's List",
      "vote_average": 8.6,
      "overview": "The true story of how businessman Oskar Schindler saved over a thousand Jewish lives from the Nazis while they worked as slaves in his factory during World War II.",
      "release_date": "1993-11-30"
    },
    {
      "popularity": 36.65,
      "vote_count": 5548,
      "video": false,
      "poster_path": "/q719jXXEzOoYaps6babgKnONONX.jpg",
      "id": 372058,
      "adult": false,
      "backdrop_path": "/e7TRYDKXHQD6xLcmA1b0OtVt0E0.jpg",
      "original_language": "ja",
      "original_title": "君の名は。",
      "genre_ids": [
        16,
        18,
        10749
      ],
      "title": "Your Name.",
      "vote_average": 8.6,
      "overview": "High schoolers Mitsuha and Taki are complete strangers living separate lives. But one night, they suddenly switch places. Mitsuha wakes up in Taki’s body, and he in hers. This bizarre occurrence continues to happen randomly, and the two must adjust their lives around each other.",
      "release_date": "2016-08-26"
    },
    {
      "popularity": 27.71,
      "vote_count": 7214,
      "video": false,
      "poster_path": "/amvmeQWheahG3StKwIE1f7jRnkZ.jpg",
      "id": 240,
      "adult": false,
      "backdrop_path": "/bNDAvlXCX160fF54ltA4SGpPGI5.jpg",
      "original_language": "en",
      "original_title": "The Godfather: Part II",
      "genre_ids": [
        80,
        18
      ],
      "title": "The Godfather: Part II",
      "vote_average": 8.6,
      "overview": "In the continuing saga of the Corleone crime family, a young Vito Corleone grows up in Sicily and in 1910s New York. In the 1950s, Michael Corleone attempts to expand the family business into Las Vegas, Hollywood and Cuba.",
      "release_date": "1974-12-20"
    },
    {
      "popularity": 105.405,
      "vote_count": 7257,
      "video": false,
      "poster_path": "/7IiTTgloJzvGI1TAYymCfbfl3vT.jpg",
      "id": 496243,
      "adult": false,
      "backdrop_path": "/ApiBzeaa95TNYliSbQ8pJv4Fje7.jpg",
      "original_language": "ko",
      "original_title": "기생충",
      "genre_ids": [
        35,
        18,
        53
      ],
      "title": "Parasite",
      "vote_average": 8.5,
      "overview": "All unemployed, Ki-taek's family takes peculiar interest in the wealthy and glamorous Parks for their livelihood until they get entangled in an unexpected incident.",
      "release_date": "2019-05-30"
    },
    {
      "popularity": 7.122,
      "vote_count": 227,
      "video": false,
      "poster_path": "/zGGWYpiKNwjpKxelPxOMqJnUgDs.jpg",
      "id": 42269,
      "adult": false,
      "backdrop_path": "/bh6yfB6I1N1WuMiX6K5HxGVZnja.jpg",
      "original_language": "it",
      "original_title": "C'eravamo tanto amati",
      "genre_ids": [
        35,
        18
      ],
      "title": "We All Loved Each Other So Much",
      "vote_average": 8.5,
      "overview": "Gianni, Nicola and Antonio become close friends in 1944 while fighting the Nazis. After the end of the war, full of illusions, they settle down. The movie is a the story of the life of these three idealists and how they deal with the inevitable disillusionments of life.",
      "release_date": "1974-12-21"
    },
    {
      "popularity": 35.605,
      "vote_count": 9409,
      "video": false,
      "poster_path": "/8Q2kDDyswBB8SPUJWfNlqvxdDFX.jpg",
      "id": 129,
      "adult": false,
      "backdrop_path": "/Ab8mkHmkYADjU7wQiOkia9BzGvS.jpg",
      "original_language": "ja",
      "original_title": "千と千尋の神隠し",
      "genre_ids": [
        16,
        14,
        10751
      ],
      "title": "Spirited Away",
      "vote_average": 8.5,
      "overview": "A young girl, Chihiro, becomes trapped in a strange new world of spirits. When her parents undergo a mysterious transformation, she must call upon the courage she never knew she had to free her family.",
      "release_date": "2001-07-20"
    },
    {
      "popularity": 26.68,
      "vote_count": 10145,
      "video": false,
      "poster_path": "/velWPhVMQeQKcxggNEU8YmIo52R.jpg",
      "id": 497,
      "adult": false,
      "backdrop_path": "/hvbWh2aBmBNWEBJIjJF2Km6Pn4i.jpg",
      "original_language": "en",
      "original_title": "The Green Mile",
      "genre_ids": [
        80,
        18,
        14
      ],
      "title": "The Green Mile",
      "vote_average": 8.5,
      "overview": "A supernatural tale set on death row in a Southern prison, where gentle giant John Coffey possesses the mysterious power to heal people's ailments. When the cell block's head guard, Paul Edgecomb, recognizes Coffey's miraculous gift, he tries desperately to help stave off the condemned man's execution.",
      "release_date": "1999-12-10"
    },
    {
      "popularity": 39.348,
      "vote_count": 18593,
      "video": false,
      "poster_path": "/d5iIlFn5s0ImszYzBPb8JPIfbXD.jpg",
      "id": 680,
      "adult": false,
      "backdrop_path": "/suaEOtk1N1sgg2MTM7oZd2cfVp3.jpg",
      "original_language": "en",
      "original_title": "Pulp Fiction",
      "genre_ids": [
        80,
        53
      ],
      "title": "Pulp Fiction",
      "vote_average": 8.5,
      "overview": "A burger-loving hit man, his philosophical partner, a drug-addled gangster's moll and a washed-up boxer converge in this sprawling, comedic crime caper. Their adventures unfurl in three stories that ingeniously trip back and forth in time.",
      "release_date": "1994-09-10"
    },
    {
      "popularity": 18.799,
      "vote_count": 8787,
      "video": false,
      "poster_path": "/mfnkSeeVOBVheuyn2lo4tfmOPQb.jpg",
      "id": 637,
      "adult": false,
      "backdrop_path": "/gavyCu1UaTaTNPsVaGXT6pe5u24.jpg",
      "original_language": "it",
      "original_title": "La vita è bella",
      "genre_ids": [
        35,
        18
      ],
      "title": "Life Is Beautiful",
      "vote_average": 8.5,
      "overview": "A touching story of an Italian book seller of Jewish ancestry who lives in his own little fairy tale. His creative and happy life would come to an abrupt halt when his entire family is deported to a concentration camp during World War II. While locked up he tries to convince his son that the whole thing is just a game.",
      "release_date": "1997-12-20"
    },
    {
      "popularity": 21.079,
      "vote_count": 2924,
      "video": false,
      "poster_path": "/hBDHr3YihnuL46aeyEMhTchXkZP.jpg",
      "id": 311,
      "adult": false,
      "backdrop_path": "/gUdk0FMw38DSUqpnLLHCAWN60he.jpg",
      "original_language": "en",
      "original_title": "Once Upon a Time in America",
      "genre_ids": [
        80,
        18
      ],
      "title": "Once Upon a Time in America",
      "vote_average": 8.4,
      "overview": "A former Prohibition-era Jewish gangster returns to the Lower East Side of Manhattan over thirty years later, where he once again must confront the ghosts and regrets of his old life.",
      "release_date": "1984-05-23"
    },
    {
      "popularity": 47.144,
      "vote_count": 15432,
      "video": false,
      "poster_path": "/rCzpDGLbOoPwLjy3OAm5NUPOTrC.jpg",
      "id": 122,
      "adult": false,
      "backdrop_path": "/9DeGfFIqjph5CBFVQrD6wv9S7rR.jpg",
      "original_language": "en",
      "original_title": "The Lord of the Rings: The Return of the King",
      "genre_ids": [
        28,
        12,
        14
      ],
      "title": "The Lord of the Rings: The Return of the King",
      "vote_average": 8.4,
      "overview": "Aragorn is revealed as the heir to the ancient kings as he, Gandalf and the other members of the broken fellowship struggle to save Gondor from Sauron's forces. Meanwhile, Frodo and Sam take the ring closer to the heart of Mordor, the dark lord's realm.",
      "release_date": "2003-12-01"
    },
    {
      "popularity": 34.271,
      "vote_count": 317,
      "video": false,
      "poster_path": "/4VlXER3FImHeFuUjBShFamhIp9M.jpg",
      "id": 664767,
      "adult": false,
      "backdrop_path": "/vw3zNfzvnVNF7nIjpiEgcdznfeC.jpg",
      "original_language": "en",
      "original_title": "Mortal Kombat Legends: Scorpion's Revenge",
      "genre_ids": [
        28,
        12,
        16,
        14
      ],
      "title": "Mortal Kombat Legends: Scorpion's Revenge",
      "vote_average": 8.4,
      "overview": "After the vicious slaughter of his family by stone-cold mercenary Sub-Zero, Hanzo Hasashi is exiled to the torturous Netherrealm. There, in exchange for his servitude to the sinister Quan Chi, he’s given a chance to avenge his family – and is resurrected as Scorpion, a lost soul bent on revenge. Back on Earthrealm, Lord Raiden gathers a team of elite warriors – Shaolin monk Liu Kang, Special Forces officer Sonya Blade and action star Johnny Cage – an unlikely band of heroes with one chance to save humanity. To do this, they must defeat Shang Tsung’s horde of Outworld gladiators and reign over the Mortal Kombat tournament.",
      "release_date": "2020-04-12"
    },
    {
      "popularity": 43.739,
      "vote_count": 17898,
      "video": false,
      "poster_path": "/clolk7rB5lAjs41SD0Vt6IXYLMm.jpg",
      "id": 13,
      "adult": false,
      "backdrop_path": "/7c9UVPPiTPltouxRVY6N9uugaVA.jpg",
      "original_language": "en",
      "original_title": "Forrest Gump",
      "genre_ids": [
        35,
        18,
        10749
      ],
      "title": "Forrest Gump",
      "vote_average": 8.4,
      "overview": "A man with a low IQ has accomplished great things in his life and been present during significant historic events—in each case, far exceeding what anyone imagined he could do. But despite all he has achieved, his one true love eludes him.",
      "release_date": "1994-07-06"
    },
    {
      "popularity": 45.421,
      "vote_count": 22131,
      "video": false,
      "poster_path": "/qJ2tW6WMUDux911r6m7haRef0WH.jpg",
      "id": 155,
      "adult": false,
      "backdrop_path": "/cfT29Im5VDvjE0RpyKOSdCKZal7.jpg",
      "original_language": "en",
      "original_title": "The Dark Knight",
      "genre_ids": [
        28,
        80,
        18,
        53
      ],
      "title": "The Dark Knight",
      "vote_average": 8.4,
      "overview": "Batman raises the stakes in his war on crime. With the help of Lt. Jim Gordon and District Attorney Harvey Dent, Batman sets out to dismantle the remaining criminal organizations that plague the streets. The partnership proves to be effective, but they soon find themselves prey to a reign of chaos unleashed by a rising criminal mastermind known to the terrified citizens of Gotham as the Joker.",
      "release_date": "2008-07-16"
    }
  ]
}